Question ,Answer
1 Double Bed,double room
1 Double Bed Non Refundable,double room
2 Single Beds,twin room
2 Single Beds Non Refundable,twin room
Deluxe Room (Non-Refundable),deluxe double room
Double,double room
Double (non-refundable),double room
Double Classic,classic double room
Double Classic (Non-Refundable),classic double room
Double Deluxe,deluxe double room
Double Deluxe (Non-Refundable),deluxe double room
Double Room,double room
Double Room,double room
Double Room - Classic (Non-Refundable),double room
Double Room (Without Breakfast),double room
Double Room (Without Breakfast) (Non-Refundable),double room
Double Room Lady Soul (Without Breakfast) (Non-Refundable),double room
Double Room Superior With Shower Non Refundable - 1 Bed,superior double room
Double Standard,double room
Double Standard (Non-Refundable),double room
Double Superior,superior double room
Double Superior (Non-Refundable),superior double room
Executive Room - Double Or Twin Non Refundable - 1 Bed,executive double/twin room
Junior Suite,junior suite
Junior Suite (Non-Refundable),junior suite
Junior Suite Standard,junior suite
Junior Suite Standard (Non-Refundable),junior suite
Privilege King Double,privilege double room
Standard Double Room,double room
Standard Double Room Non Refundable,double room
Standard Room,double room
Standard Room (Non-Refundable),double room
Suite Standard,suite
Suite Standard (Non-Refundable),suite
Superior King Double,superior double room
Superior King Triple,superior triple room
Superior King Twin,superior twin room
Terrace Room,double/twin room
Terrace Room (Non-Refundable),double/twin room
Twin,twin room
Twin Room,twin room
Twin Room (Without Breakfast),twin room
Twin Superior,superior twin room
Twin Superior (Non-Refundable),superior twin room
Twin/Double Room,double/twin room
Twin/Double Room - Superior (Non-Refundable),superior double/twin room
Twin/Double Room (Non-Refundable),double/twin room